GLMs for Car Insurance Pricing: Initial Modeling
…
Instead, we leave it there and instead turn our attention to modelling the size of the claims.

2.2 Modelling Claim Size

We turn our attention to modelling the size of the claim, given that a claim has occurred. We use the individual claim data for this, but will use variables from the policy table also. We are not modelling claims above EUR 25,000 so we exclude these data now.

claimdata_dt <- policyclaim_dt %>%
    select(-contains("claim_count"), contains("total_claims")) %>%
    inner_join(claim_dt, by = 'policy_id') %>%
    filter(claim_amount < 25000)

print(claimdata_dt)

## Source: local data table [16,068 x 17]
## 
## # tbl_dt [16,068 x 17]
##    policy_id exposure power car_age driver_age                              brand    fuel
##        <int>    <dbl> <chr>   <int>      <int>                              <chr>   <chr>
## 1         33     0.75     g       1         61 Japanese (except Nissan) or Korean Regular
## 2         41     0.14     l       5         50 Japanese (except Nissan) or Korean  Diesel
## 3         92     0.14     d       0         36 Japanese (except Nissan) or Korean Regular
## 4         96     0.62     j       0         51 Japanese (except Nissan) or Korean Regular
## 5         96     0.62     j       0         51 Japanese (except Nissan) or Korean Regular
## 6        142     0.75     e       0         34 Japanese (except Nissan) or Korean Regular
## 7        182     0.68     d      10         24         Renault, Nissan or Citroen Regular
## 8        377     0.50     i       0         35 Japanese (except Nissan) or Korean Regular
## 9        378     0.73     f       0         74 Japanese (except Nissan) or Korean Regular
## 10       401     0.65     f       8         49         Renault, Nissan or Citroen Regular
## # ... with 16,058 more rows, and 10 more variables: region <chr>, density <int>,
## #   total_claims <dbl>, cat_driver_age <chr>, cat_car_age <chr>, cat_density <chr>,
## #   agg_power <chr>, agg_power_2 <chr>, agg_region <chr>, claim_amount <int>
…
